{
  "project_info": {
    "project_number": "207733124345",
    "firebase_url": "https://smart-hidroponik-f2509.firebaseio.com",
    "project_id": "smart-hidroponik-f2509",
    "storage_bucket": "smart-hidroponik-f2509.appspot.com"
  },
  "client": [
    {
      "client_info": {
        "mobilesdk_app_id": "1:207733124345:android:983fa84ee32c28d267c628",
        "android_client_info": {
          "package_name": "com.example.hidroponik"
        }
      },
      "oauth_client": [
        {
          "client_id": "207733124345-1vqnfv5iim63pa1b9bbu7nscdu94bjsh.apps.googleusercontent.com",
          "client_type": 3
        }
      ],
      "api_key": [
        {
          "current_key": "AIzaSyDiSKJKwmOymqCZYeNLLwAr1i8r-E9iwzk"
        }
      ],
      "services": {
        "appinvite_service": {
          "other_platform_oauth_client": [
            {
              "client_id": "207733124345-1vqnfv5iim63pa1b9bbu7nscdu94bjsh.apps.googleusercontent.com",
              "client_type": 3
            }
          ]
        }
      }
    },
    {
      "client_info": {
        "mobilesdk_app_id": "1:207733124345:android:7f05efdad9f1f9a767c628",
        "android_client_info": {
          "package_name": "com.hidroponikhore"
        }
      },
      "oauth_client": [
        {
          "client_id": "207733124345-1vqnfv5iim63pa1b9bbu7nscdu94bjsh.apps.googleusercontent.com",
          "client_type": 3
        }
      ],
      "api_key": [
        {
          "current_key": "AIzaSyDiSKJKwmOymqCZYeNLLwAr1i8r-E9iwzk"
        }
      ],
      "services": {
        "appinvite_service": {
          "other_platform_oauth_client": [
            {
              "client_id": "207733124345-1vqnfv5iim63pa1b9bbu7nscdu94bjsh.apps.googleusercontent.com",
              "client_type": 3
            }
          ]
        }
      }
    }
  ],
  "configuration_version": "1"
}
